<?xml version="1.0" encoding="UTF-8" standalone="no"?>
<!-- Created with Inkscape (http://www.inkscape.org/) -->

<svg
   xmlns:dc="http://purl.org/dc/elements/1.1/"
   xmlns:cc="http://creativecommons.org/ns#"
   xmlns:rdf="http://www.w3.org/1999/02/22-rdf-syntax-ns#"
   xmlns:svg="http://www.w3.org/2000/svg"
   xmlns="http://www.w3.org/2000/svg"
   xmlns:sodipodi="http://sodipodi.sourceforge.net/DTD/sodipodi-0.dtd"
   xmlns:inkscape="http://www.inkscape.org/namespaces/inkscape"
   width="119.0625mm"
   height="43.042198mm"
   viewBox="0 0 119.0625 43.042198"
   version="1.1"
   id="svg8"
   inkscape:version="0.92+devel unknown"
   sodipodi:docname="config-result.svg">
  <defs
     id="defs2" />
  <sodipodi:namedview
     id="base"
     pagecolor="#ffffff"
     bordercolor="#666666"
     borderopacity="1.0"
     inkscape:pageopacity="0.0"
     inkscape:pageshadow="2"
     inkscape:zoom="2"
     inkscape:cx="348.22127"
     inkscape:cy="87.313977"
     inkscape:document-units="px"
     inkscape:current-layer="layer1"
     showgrid="false"
     units="mm"
     showborder="false"
     inkscape:window-width="1920"
     inkscape:window-height="1016"
     inkscape:window-x="0"
     inkscape:window-y="27"
     inkscape:window-maximized="1"
     showguides="true"
     inkscape:guide-bbox="true"
     inkscape:document-rotation="0"
     fit-margin-top="0"
     fit-margin-left="0"
     fit-margin-right="0"
     fit-margin-bottom="0" />
  <metadata
     id="metadata5">
    <rdf:RDF>
      <cc:Work
         rdf:about="">
        <dc:format>image/svg+xml</dc:format>
        <dc:type
           rdf:resource="http://purl.org/dc/dcmitype/StillImage" />
        <dc:title></dc:title>
      </cc:Work>
    </rdf:RDF>
  </metadata>
  <g
     inkscape:label="Vrstva 1"
     inkscape:groupmode="layer"
     id="layer1"
     transform="translate(77.207447,-66.095374)">
    <text
       xml:space="preserve"
       style="font-style:normal;font-weight:normal;font-size:10.58333302px;line-height:1.25;font-family:sans-serif;letter-spacing:0px;word-spacing:0px;fill:#000000;fill-opacity:1;stroke:none;stroke-width:0.26458332"
       x="47.823437"
       y="102.4651"
       id="text5035"><tspan
         sodipodi:role="line"
         id="tspan5033"
         x="47.823437"
         y="111.82887"
         style="stroke-width:0.26458332" /></text>
    <g
       id="g8054"
       transform="matrix(0.72595769,0,0,0.72595769,-21.158107,29.908312)">
      <rect
         y="60.031998"
         x="-70.733582"
         height="48.605576"
         width="122.5265"
         id="rect4485-3-7-3-2"
         style="opacity:1;fill:#333333;fill-opacity:0.99469497;fill-rule:nonzero;stroke:#000000;stroke-width:0.99999994;stroke-linecap:round;stroke-linejoin:round;stroke-miterlimit:100;stroke-dasharray:none;stroke-opacity:1;paint-order:normal" />
      <text
         transform="scale(1.0658733,0.93819781)"
         id="text4506-5-7-3-6"
         y="69.911316"
         x="-61.929173"
         style="font-style:normal;font-variant:normal;font-weight:normal;font-stretch:normal;font-size:3.75073338px;line-height:1.25;font-family:sans-serif;-inkscape-font-specification:'sans-serif, Normal';font-variant-ligatures:normal;font-variant-caps:normal;font-variant-numeric:normal;font-feature-settings:normal;text-align:start;letter-spacing:0px;word-spacing:0px;writing-mode:lr-tb;text-anchor:start;fill:#f9f9f9;fill-opacity:1;stroke:none;stroke-width:1.00012517;stroke-miterlimit:100;stroke-dasharray:none"
         xml:space="preserve"><tspan
           y="69.911316"
           x="-61.929173"
           id="tspan7987"
           sodipodi:role="line">{</tspan><tspan
           y="74.599731"
           x="-61.929173"
           id="tspan7989"
           sodipodi:role="line">    &quot;labels&quot;: {</tspan><tspan
           y="79.288147"
           x="-61.929173"
           id="tspan7991"
           sodipodi:role="line">        &quot;maintainer&quot;: &quot;frantisek lachman&quot;,</tspan><tspan
           y="83.976562"
           x="-61.929173"
           id="tspan7993"
           sodipodi:role="line">        &quot;maintainer_mail&quot;: &quot;lachmanfrantisek@gmail.com&quot;,</tspan><tspan
           y="88.664986"
           x="-61.929173"
           id="tspan7995"
           sodipodi:role="line">        &quot;product_name&quot;: &quot;my_product&quot;,</tspan><tspan
           y="93.353401"
           x="-61.929173"
           id="tspan7997"
           sodipodi:role="line">        &quot;app_name&quot;: &quot;my_app1&quot;,</tspan><tspan
           y="98.041817"
           x="-61.929173"
           id="tspan7999"
           sodipodi:role="line">        &quot;app_version&quot;: &quot;v.1.9.2&quot;,</tspan><tspan
           y="102.73023"
           x="-61.929173"
           id="tspan8001"
           sodipodi:role="line">        &quot;last_change&quot;: &quot;2017-05-14&quot;</tspan><tspan
           y="107.41865"
           x="-61.929173"
           id="tspan8003"
           sodipodi:role="line">    }</tspan><tspan
           y="112.10706"
           x="-61.929173"
           id="tspan8005"
           sodipodi:role="line">}</tspan></text>
    </g>
    <g
       id="g8028"
       transform="matrix(0.72595769,0,0,0.72595769,-18.469039,36.438907)">
      <rect
         y="41.351509"
         x="-80.411613"
         height="10.421515"
         width="163.00749"
         id="rect4896"
         style="opacity:1;fill:#333333;fill-opacity:0.99469497;fill-rule:nonzero;stroke:#000000;stroke-width:0.99999994;stroke-linecap:round;stroke-linejoin:round;stroke-miterlimit:100;stroke-dasharray:none;stroke-opacity:1;paint-order:normal" />
      <text
         transform="scale(1.0658733,0.93819781)"
         id="text4908"
         y="50.61203"
         x="-55.92931"
         style="font-style:normal;font-variant:normal;font-weight:normal;font-stretch:normal;font-size:3.75073338px;line-height:1.25;font-family:sans-serif;-inkscape-font-specification:'sans-serif, Normal';font-variant-ligatures:normal;font-variant-caps:normal;font-variant-numeric:normal;font-feature-settings:normal;text-align:start;letter-spacing:0px;word-spacing:0px;writing-mode:lr-tb;text-anchor:start;fill:#f9f9f9;fill-opacity:1;stroke:none;stroke-width:1.00012517;stroke-miterlimit:100;stroke-dasharray:none"
         xml:space="preserve"><tspan
           y="50.61203"
           x="-55.92931"
           id="tspan6824"
           sodipodi:role="line">incubator build  -l last_change:2017-05-14  -g ../incubator-config.json .</tspan></text>
      <g
         transform="translate(-1.5875)"
         id="g6829">
        <rect
           y="43.206623"
           x="-78.237015"
           height="6.7112904"
           width="18.625616"
           id="rect4910"
           style="opacity:1;fill:#f9f9f9;fill-opacity:0.99469497;fill-rule:nonzero;stroke:#000000;stroke-width:1.00012505;stroke-linecap:round;stroke-linejoin:round;stroke-miterlimit:100;stroke-dasharray:none;stroke-opacity:1;paint-order:normal" />
        <text
           xml:space="preserve"
           style="font-style:normal;font-variant:normal;font-weight:normal;font-stretch:normal;font-size:3.52777767px;line-height:1.25;font-family:sans-serif;-inkscape-font-specification:'sans-serif, Normal';font-variant-ligatures:normal;font-variant-caps:normal;font-variant-numeric:normal;font-feature-settings:normal;text-align:start;letter-spacing:0px;word-spacing:0px;writing-mode:lr-tb;text-anchor:start;fill:#000000;fill-opacity:1;stroke:none;stroke-width:1.00012505;stroke-miterlimit:100;stroke-dasharray:none"
           x="-75.43602"
           y="47.65176"
           id="text4914"
           transform="scale(1.0024967,0.99750952)"><tspan
             sodipodi:role="line"
             id="tspan6819"
             x="-75.43602"
             y="47.65176">app1/ $</tspan></text>
      </g>
    </g>
  </g>
</svg>
