<?xml version="1.0" encoding="UTF-8" standalone="no"?>
<!-- Created with Inkscape (http://www.inkscape.org/) -->

<svg
   xmlns:dc="http://purl.org/dc/elements/1.1/"
   xmlns:cc="http://creativecommons.org/ns#"
   xmlns:rdf="http://www.w3.org/1999/02/22-rdf-syntax-ns#"
   xmlns:svg="http://www.w3.org/2000/svg"
   xmlns="http://www.w3.org/2000/svg"
   xmlns:sodipodi="http://sodipodi.sourceforge.net/DTD/sodipodi-0.dtd"
   xmlns:inkscape="http://www.inkscape.org/namespaces/inkscape"
   width="119.06935mm"
   height="36.773487mm"
   viewBox="0 0 119.06935 36.773487"
   version="1.1"
   id="svg8"
   inkscape:version="0.92+devel unknown"
   sodipodi:docname="config.svg">
  <defs
     id="defs2" />
  <sodipodi:namedview
     id="base"
     pagecolor="#ffffff"
     bordercolor="#666666"
     borderopacity="1.0"
     inkscape:pageopacity="0.0"
     inkscape:pageshadow="2"
     inkscape:zoom="0.70710678"
     inkscape:cx="149.9153"
     inkscape:cy="403.74198"
     inkscape:document-units="px"
     inkscape:current-layer="layer1"
     showgrid="false"
     units="mm"
     showborder="true"
     inkscape:window-width="1920"
     inkscape:window-height="1016"
     inkscape:window-x="0"
     inkscape:window-y="27"
     inkscape:window-maximized="1"
     showguides="true"
     inkscape:guide-bbox="true"
     inkscape:document-rotation="0"
     objecttolerance="4.8"
     inkscape:pagecheckerboard="false"
     fit-margin-top="0"
     fit-margin-left="0"
     fit-margin-right="0"
     fit-margin-bottom="0" />
  <metadata
     id="metadata5">
    <rdf:RDF>
      <cc:Work
         rdf:about="">
        <dc:format>image/svg+xml</dc:format>
        <dc:type
           rdf:resource="http://purl.org/dc/dcmitype/StillImage" />
        <dc:title></dc:title>
      </cc:Work>
    </rdf:RDF>
  </metadata>
  <g
     inkscape:label="Vrstva 1"
     inkscape:groupmode="layer"
     id="layer1"
     transform="translate(-15.693082,-79.695131)">
    <text
       xml:space="preserve"
       style="font-style:normal;font-weight:normal;font-size:6.03728914px;line-height:1.25;font-family:sans-serif;letter-spacing:0px;word-spacing:0px;fill:#000000;fill-opacity:1;stroke:none;stroke-width:0.15093224"
       x="-15.47227"
       y="117.13575"
       id="text5035"><tspan
         sodipodi:role="line"
         id="tspan5033"
         x="-15.47227"
         y="122.47733"
         style="stroke-width:0.15093224" /></text>
    <g
       id="g7303"
       transform="matrix(0.57045255,0,0,0.57045255,66.13847,40.121558)">
      <rect
         y="69.905457"
         x="3.7895088"
         height="29.636417"
         width="116.00783"
         id="rect4485-3-7-3-2"
         style="opacity:1;fill:#808080;fill-opacity:0.99469497;fill-rule:nonzero;stroke:#000000;stroke-width:1;stroke-linecap:round;stroke-linejoin:round;stroke-miterlimit:100;stroke-dasharray:none;stroke-opacity:1;paint-order:normal" />
      <text
         transform="scale(1.0658733,0.93819781)"
         id="text4506-5-7-3-6"
         y="79.702644"
         x="5.5255418"
         style="font-style:normal;font-variant:normal;font-weight:normal;font-stretch:normal;font-size:3.75073338px;line-height:1.25;font-family:sans-serif;-inkscape-font-specification:'sans-serif, Normal';font-variant-ligatures:normal;font-variant-caps:normal;font-variant-numeric:normal;font-feature-settings:normal;text-align:start;letter-spacing:0px;word-spacing:0px;writing-mode:lr-tb;text-anchor:start;fill:#000000;fill-opacity:1;stroke:none;stroke-width:1.00012517;stroke-miterlimit:100;stroke-dasharray:none"
         xml:space="preserve"><tspan
           y="79.702644"
           x="5.5255418"
           id="tspan3981"
           sodipodi:role="line">{</tspan><tspan
           y="84.39106"
           x="5.5255418"
           id="tspan3983"
           sodipodi:role="line">    &quot;labels&quot;: {</tspan><tspan
           y="89.079475"
           x="5.5255418"
           id="tspan3985"
           sodipodi:role="line">        &quot;maintainer&quot;: &quot;frantisek lachman&quot;,</tspan><tspan
           y="93.767891"
           x="5.5255418"
           id="tspan3987"
           sodipodi:role="line">        &quot;maintainer_mail&quot;: &quot;lachmanfrantisek@gmail.com&quot;</tspan><tspan
           y="98.456314"
           x="5.5255418"
           id="tspan3989"
           sodipodi:role="line">    }</tspan><tspan
           y="103.14473"
           x="5.5255418"
           id="tspan3991"
           sodipodi:role="line">}</tspan></text>
      <rect
         style="opacity:1;fill:#f9f9f9;fill-opacity:0.99469497;fill-rule:nonzero;stroke:#000000;stroke-width:1.00012505;stroke-linecap:round;stroke-linejoin:round;stroke-miterlimit:100;stroke-dasharray:none;stroke-opacity:1;paint-order:normal"
         id="rect4826"
         width="68.566353"
         height="6.7112904"
         x="51.230988"
         y="69.905457" />
      <text
         transform="scale(1.0024967,0.99750952)"
         id="text4836"
         y="74.620506"
         x="60.018497"
         style="font-style:normal;font-variant:normal;font-weight:normal;font-stretch:normal;font-size:3.52777791px;line-height:1.25;font-family:sans-serif;-inkscape-font-specification:'sans-serif, Normal';font-variant-ligatures:normal;font-variant-caps:normal;font-variant-numeric:normal;font-feature-settings:normal;text-align:start;letter-spacing:0px;word-spacing:0px;writing-mode:lr-tb;text-anchor:start;fill:#000000;fill-opacity:1;stroke:none;stroke-width:1.00012505;stroke-miterlimit:100;stroke-dasharray:none"
         xml:space="preserve"><tspan
           id="tspan4855"
           style="font-style:normal;font-variant:normal;font-weight:normal;font-stretch:normal;font-size:3.52777791px;font-family:sans-serif;-inkscape-font-specification:'sans-serif, Normal';font-variant-ligatures:normal;font-variant-caps:normal;font-variant-numeric:normal;font-feature-settings:normal;text-align:start;writing-mode:lr-tb;text-anchor:start;stroke-width:1.00012505;stroke-miterlimit:100;stroke-dasharray:none"
           y="74.620506"
           x="60.018497"
           sodipodi:role="line">/home/lachman/.incubator.rc</tspan></text>
    </g>
    <rect
       y="79.980392"
       x="18.055292"
       height="19.24457"
       width="44.733795"
       id="rect4864"
       style="opacity:1;fill:#333333;fill-opacity:0.99469497;fill-rule:nonzero;stroke:#000000;stroke-width:0.57045257;stroke-linecap:round;stroke-linejoin:round;stroke-miterlimit:100;stroke-dasharray:none;stroke-opacity:1;paint-order:normal" />
    <text
       transform="scale(1.0658733,0.93819781)"
       id="text4878"
       y="91.156921"
       x="17.671106"
       style="font-style:normal;font-variant:normal;font-weight:normal;font-stretch:normal;font-size:2.1396153px;line-height:1.25;font-family:sans-serif;-inkscape-font-specification:'sans-serif, Normal';font-variant-ligatures:normal;font-variant-caps:normal;font-variant-numeric:normal;font-feature-settings:normal;text-align:start;letter-spacing:0px;word-spacing:0px;writing-mode:lr-tb;text-anchor:start;fill:#f9f9f9;fill-opacity:1;stroke:none;stroke-width:0.57052398;stroke-miterlimit:100;stroke-dasharray:none"
       xml:space="preserve"><tspan
         y="91.156921"
         x="17.671106"
         id="tspan4866"
         sodipodi:role="line"
         style="stroke-width:0.57052398">{</tspan><tspan
         y="93.831444"
         x="17.671106"
         id="tspan4868"
         sodipodi:role="line"
         style="stroke-width:0.57052398">    &quot;labels&quot;: {</tspan><tspan
         y="96.505959"
         x="17.671106"
         id="tspan4872"
         sodipodi:role="line"
         style="stroke-width:0.57052398">        &quot;product_name&quot;: &quot;my_product&quot;,</tspan><tspan
         id="tspan7221"
         y="99.180481"
         x="17.671106"
         sodipodi:role="line"
         style="stroke-width:0.57052398">        &quot;last_change&quot;: &quot;2017-05-12&quot;</tspan><tspan
         y="101.855"
         x="17.671106"
         id="tspan4874"
         sodipodi:role="line"
         style="stroke-width:0.57052398">    }</tspan><tspan
         y="104.52952"
         x="17.671106"
         id="tspan4876"
         sodipodi:role="line"
         style="stroke-width:0.57052398">}</tspan></text>
    <rect
       style="opacity:1;fill:#f9f9f9;fill-opacity:0.99469497;fill-rule:nonzero;stroke:#000000;stroke-width:0.57052386;stroke-linecap:round;stroke-linejoin:round;stroke-miterlimit:100;stroke-dasharray:none;stroke-opacity:1;paint-order:normal"
       id="rect4880"
       width="35.331306"
       height="3.8284726"
       x="27.457781"
       y="79.980392" />
    <text
       transform="scale(1.0024967,0.99750952)"
       id="text4884"
       y="82.654274"
       x="30.373772"
       style="font-style:normal;font-variant:normal;font-weight:normal;font-stretch:normal;font-size:2.01242971px;line-height:1.25;font-family:sans-serif;-inkscape-font-specification:'sans-serif, Normal';font-variant-ligatures:normal;font-variant-caps:normal;font-variant-numeric:normal;font-feature-settings:normal;text-align:start;letter-spacing:0px;word-spacing:0px;writing-mode:lr-tb;text-anchor:start;fill:#000000;fill-opacity:1;stroke:none;stroke-width:0.57052386;stroke-miterlimit:100;stroke-dasharray:none"
       xml:space="preserve"><tspan
         y="82.654274"
         x="30.373772"
         sodipodi:role="line"
         id="tspan4944"
         style="stroke-width:0.57052386">/project/incubator-config.json</tspan></text>
    <rect
       style="opacity:1;fill:#333333;fill-opacity:0.99469497;fill-rule:nonzero;stroke:#000000;stroke-width:0.57045257;stroke-linecap:round;stroke-linejoin:round;stroke-miterlimit:100;stroke-dasharray:none;stroke-opacity:1;paint-order:normal"
       id="rect4896"
       width="43.263195"
       height="19.722429"
       x="52.942276"
       y="95.038712" />
    <text
       xml:space="preserve"
       style="font-style:normal;font-variant:normal;font-weight:normal;font-stretch:normal;font-size:2.1396153px;line-height:1.25;font-family:sans-serif;-inkscape-font-specification:'sans-serif, Normal';font-variant-ligatures:normal;font-variant-caps:normal;font-variant-numeric:normal;font-feature-settings:normal;text-align:start;letter-spacing:0px;word-spacing:0px;writing-mode:lr-tb;text-anchor:start;fill:#f9f9f9;fill-opacity:1;stroke:none;stroke-width:0.57052398;stroke-miterlimit:100;stroke-dasharray:none"
       x="54.126816"
       y="106.88544"
       id="text4908"
       transform="scale(1.0658733,0.93819781)"><tspan
         y="106.88544"
         x="54.126816"
         sodipodi:role="line"
         id="tspan4946"
         style="stroke-width:0.57052398">{</tspan><tspan
         y="109.55996"
         x="54.126816"
         sodipodi:role="line"
         id="tspan4948"
         style="stroke-width:0.57052398">    &quot;labels&quot;: {</tspan><tspan
         y="112.23447"
         x="54.126816"
         sodipodi:role="line"
         id="tspan4950"
         style="stroke-width:0.57052398">        &quot;app_name&quot;: &quot;my_app1&quot;,</tspan><tspan
         y="114.909"
         x="54.126816"
         sodipodi:role="line"
         id="tspan4952"
         style="stroke-width:0.57052398">        &quot;app_version&quot;: &quot;v1.9.2&quot;</tspan><tspan
         y="117.58351"
         x="54.126816"
         sodipodi:role="line"
         id="tspan4954"
         style="stroke-width:0.57052398">    }</tspan><tspan
         y="120.25803"
         x="54.126816"
         sodipodi:role="line"
         id="tspan4956"
         style="stroke-width:0.57052398">}</tspan></text>
    <rect
       y="95.038712"
       x="60.874157"
       height="3.8284726"
       width="35.331306"
       id="rect4910"
       style="opacity:1;fill:#f9f9f9;fill-opacity:0.99469497;fill-rule:nonzero;stroke:#000000;stroke-width:0.57052386;stroke-linecap:round;stroke-linejoin:round;stroke-miterlimit:100;stroke-dasharray:none;stroke-opacity:1;paint-order:normal" />
    <text
       xml:space="preserve"
       style="font-style:normal;font-variant:normal;font-weight:normal;font-stretch:normal;font-size:2.01242971px;line-height:1.25;font-family:sans-serif;-inkscape-font-specification:'sans-serif, Normal';font-variant-ligatures:normal;font-variant-caps:normal;font-variant-numeric:normal;font-feature-settings:normal;text-align:start;letter-spacing:0px;word-spacing:0px;writing-mode:lr-tb;text-anchor:start;fill:#000000;fill-opacity:1;stroke:none;stroke-width:0.57052386;stroke-miterlimit:100;stroke-dasharray:none"
       x="63.706928"
       y="97.750206"
       id="text4914"
       transform="scale(1.0024967,0.99750952)"><tspan
         y="97.750206"
         x="63.706928"
         sodipodi:role="line"
         id="tspan4942"
         style="stroke-width:0.57052386">/project/app1/.incubator.rc</tspan></text>
    <rect
       y="98.323181"
       x="15.982126"
       height="17.856392"
       width="39.666458"
       id="rect4958"
       style="opacity:1;fill:#333333;fill-opacity:0.99469497;fill-rule:nonzero;stroke:#000000;stroke-width:0.57808888;stroke-linecap:round;stroke-linejoin:round;stroke-miterlimit:100;stroke-dasharray:none;stroke-opacity:1;paint-order:normal" />
    <text
       transform="scale(1.0658733,0.93819781)"
       id="text4972"
       y="111.34747"
       x="16.971407"
       style="font-style:normal;font-variant:normal;font-weight:normal;font-stretch:normal;font-size:2.1396153px;line-height:1.25;font-family:sans-serif;-inkscape-font-specification:'sans-serif, Normal';font-variant-ligatures:normal;font-variant-caps:normal;font-variant-numeric:normal;font-feature-settings:normal;text-align:start;letter-spacing:0px;word-spacing:0px;writing-mode:lr-tb;text-anchor:start;fill:#f9f9f9;fill-opacity:1;stroke:none;stroke-width:0.57052398;stroke-miterlimit:100;stroke-dasharray:none"
       xml:space="preserve"><tspan
         sodipodi:role="line"
         id="tspan4980"
         x="16.971407"
         y="111.34747"
         style="stroke-width:0.57052398">{</tspan><tspan
         sodipodi:role="line"
         id="tspan4982"
         x="16.971407"
         y="114.022"
         style="stroke-width:0.57052398">    &quot;labels&quot;: {</tspan><tspan
         sodipodi:role="line"
         id="tspan4986"
         x="16.971407"
         y="116.69651"
         style="stroke-width:0.57052398">        &quot;app_name&quot;: &quot;my_app2&quot;</tspan><tspan
         sodipodi:role="line"
         id="tspan4988"
         x="16.971407"
         y="119.37103"
         style="stroke-width:0.57052398">    }</tspan><tspan
         sodipodi:role="line"
         id="tspan4990"
         x="16.971407"
         y="122.04555"
         style="stroke-width:0.57052398">}</tspan></text>
    <rect
       style="opacity:1;fill:#f9f9f9;fill-opacity:0.99469497;fill-rule:nonzero;stroke:#000000;stroke-width:0.57052386;stroke-linecap:round;stroke-linejoin:round;stroke-miterlimit:100;stroke-dasharray:none;stroke-opacity:1;paint-order:normal"
       id="rect4974"
       width="32.148018"
       height="3.8284726"
       x="23.504374"
       y="98.319366" />
    <text
       transform="scale(1.0024967,0.99750952)"
       id="text4978"
       y="101.03905"
       x="26.206917"
       style="font-style:normal;font-variant:normal;font-weight:normal;font-stretch:normal;font-size:2.01242971px;line-height:1.25;font-family:sans-serif;-inkscape-font-specification:'sans-serif, Normal';font-variant-ligatures:normal;font-variant-caps:normal;font-variant-numeric:normal;font-feature-settings:normal;text-align:start;letter-spacing:0px;word-spacing:0px;writing-mode:lr-tb;text-anchor:start;fill:#000000;fill-opacity:1;stroke:none;stroke-width:0.57052386;stroke-miterlimit:100;stroke-dasharray:none"
       xml:space="preserve"><tspan
         y="101.03905"
         x="26.206917"
         id="tspan5043"
         sodipodi:role="line"
         style="stroke-width:0.57052386">/project/app2/.incubator.rc</tspan></text>
  </g>
</svg>
